Challenge infections - Descreptive statistics
…
Challenge infections - Descreptive statistics

Challenge infections with Eimeria. Here I am presenting some summary statistics on the laboratory infection of mice with different Eimeria strains.

Here is a data frame containing all information derived from the experimental infections with Eimeria.

#### Read the file
CI <- read.csv("https://raw.githubusercontent.com/derele/Eimeria_Lab/master/data_products/Challenge_infections.csv")

Wrangling

## # A tibble: 2,984 x 98
##    EH_ID experiment primary_infecti~ challenge_infec~ mouse_strain labels weight
##    <chr> <chr>      <chr>            <chr>            <chr>        <chr>   <dbl>
##  1 LM02~ E57        E88              E64              BUSNA_STRA   E57aA~   22.2
##  2 LM02~ E57        E88              E64              BUSNA_STRA   E57aB~   19.1
##  3 LM02~ E57        E88              E64              BUSNA_STRA   E57bx~   22.9
##  4 LM02~ E57        E88              E64              BUSNA_STRA   E57aP~   22  
##  5 LM02~ E57        E88              E64              BUSNA_STRA   E57aF~   20.0
##  6 LM02~ E57        E88              E64              BUSNA_STRA   E57aN~   22.1
##  7 LM02~ E57        E88              E64              BUSNA_STRA   E57bx~   22.9
##  8 LM02~ E57        E88              E64              BUSNA_STRA   E57bx~   23.2
##  9 LM02~ E57        E88              E64              BUSNA_STRA   E57bx~   23.1
## 10 LM02~ E57        E88              E64              BUSNA_STRA   E57aG~   21.0
## # ... with 2,974 more rows, and 91 more variables: weight_dpi0 <dbl>,
## #   relative_weight <dbl>, feces_weight <dbl>, dpi <int>, infection <chr>,
## #   oocyst_sq1 <int>, oocyst_sq2 <int>, oocyst_sq3 <int>, oocyst_sq4 <int>,
## #   dilution <dbl>, OO4sq <int>, OOC <dbl>, infection_history <chr>,
## #   Eim_MC <lgl>, delta <dbl>, IFNy_CEWE <dbl>, IFNy_MES <dbl>, CXCR3 <dbl>,
## #   IRG6 <dbl>, IL.12 <dbl>, CASP1 <dbl>, CXCL9 <dbl>, CXCR3_bio <dbl>,
## #   IDO1 <dbl>, IFNy <dbl>, IL.10 <dbl>, IL.12A <dbl>, IL1RN <dbl>, ...
…
